{
    "name":"ContentBox Modular CMS Installer",
    "version":"3.7.0",
    "location":"http://downloads.ortussolutions.com/ortussolutions/contentbox/3.7.0/contentbox-installer-3.7.0.zip",
    "author":"Ortus Solutions <info@ortussolutions.com>",
    "slug":"contentbox-installer",
    "shortDescription":"A ColdBox site configured for ContentBox CMS",
    "type":"cms",
    "keywords":"cms,content management,modular cms",
    "homepage":"https://www.contentboxcms.org",
    "documentation":"https://contentbox.ortusbooks.com",
    "repository":{
        "type":"git",
        "url":"https://github.com/Ortus-Solutions/ContentBox"
    },
    "bugs":"https://ortussolutions.atlassian.net/browse/CONTENTBOX",
    "createPackageDirectory":false,
    "license":[
        {
            "type":"Apache2",
            "url":"http://www.apache.org/licenses/LICENSE-2.0.html"
        }
    ],
    "contributors":[
        "Joel Watson <existdissolve@gmail.com>",
        "Brad Wood <bdw429s@gmail.com>",
        "Curt Gratz <gratz@computerknowhow.com>"
    ],
    "dependencies":{
        "coldbox":"^5.0.0",
        "cbdebugger":"^1.6.0+22",
        "qb":"^5.4.1",
        "hyper":"^1.14.5"
    },
    "installPaths":{
        "coldbox":"coldbox/",
        "contentbox":"modules/contentbox/",
        "testbox":"testbox/",
        "cbdebugger":"modules/cbdebugger/",
        "qb":"modules/qb/",
        "hyper":"modules/hyper/"
    },
    "devDependencies":{
        "testbox":"^2.5.0",
        "cbdebugger":"^1.6.0+22"
    },
    "ignores":[]
}